<?xml version="1.0" encoding="UTF-8" standalone="no"?>
<!-- Created with Inkscape (http://www.inkscape.org/) -->

<svg
   xmlns:dc="http://purl.org/dc/elements/1.1/"
   xmlns:cc="http://creativecommons.org/ns#"
   xmlns:rdf="http://www.w3.org/1999/02/22-rdf-syntax-ns#"
   xmlns:svg="http://www.w3.org/2000/svg"
   xmlns="http://www.w3.org/2000/svg"
   xmlns:xlink="http://www.w3.org/1999/xlink"
   xmlns:sodipodi="http://sodipodi.sourceforge.net/DTD/sodipodi-0.dtd"
   xmlns:inkscape="http://www.inkscape.org/namespaces/inkscape"
   width="330.26804mm"
   height="315.71851mm"
   viewBox="0 0 330.26804 315.71851"
   version="1.1"
   id="svg8"
   inkscape:version="0.92.3 (2405546, 2018-03-11)"
   sodipodi:docname="bike-red-yellow.svg">
  <defs
     id="defs2">
    <linearGradient
       inkscape:collect="always"
       id="linearGradient880">
      <stop
         style="stop-color:#e60800;stop-opacity:1"
         offset="0"
         id="stop876" />
      <stop
         style="stop-color:#e6bb00;stop-opacity:1"
         offset="1"
         id="stop878" />
    </linearGradient>
    <linearGradient
       inkscape:collect="always"
       xlink:href="#linearGradient880"
       id="linearGradient882"
       x1="-91.457893"
       y1="126.90986"
       x2="238.81014"
       y2="126.90986"
       gradientUnits="userSpaceOnUse" />
    <clipPath
       clipPathUnits="userSpaceOnUse"
       id="clipPath827">
      <path
         style="fill:#000000;stroke-width:0.26458332"
         d="m -33.777887,284.36714 c -3.97088,-1.03756 -8.106238,-1.64478 -12.00536,-2.94743 -5.966394,-2.02104 -11.612189,-5.03639 -16.829939,-8.54149 -10.05709,-7.2181 -18.272635,-17.02239 -23.338681,-28.33814 -1.600236,-3.50076 -2.65509,-7.17487 -3.72573,-10.84173 -0.679102,-3.81386 -1.336791,-7.65451 -1.701613,-11.50686 -0.08705,-5.00374 -0.368875,-10.09793 0.855263,-14.98156 0.502895,-6.7648 3.118687,-13.13011 5.817922,-19.2815 3.482584,-7.0739 8.430644,-13.28175 14.115431,-18.7228 6.225869,-6.38456 13.940058,-11.17782 22.227657,-14.405 3.585218,-1.34357 7.271208,-2.2881 10.983606,-3.14387 4.094429,-0.44458 8.608345,-0.78385 12.36473,-0.84628 3.458636,-0.0903 6.028746,0.25013 8.398074,0.30777 0.689308,-2.84071 1.991037,-5.64319 2.641391,-8.36595 -2.646617,-3.17969 -6.488888,-5.13714 -9.64728,-7.77363 -3.038536,-2.37438 -6.219053,-4.52852 -9.191943,-6.99225 -3.091452,-2.10881 -6.047872,-4.45969 -9.032883,-6.71608 -2.894354,-2.55274 -5.318773,-6.03511 -4.96289,-10.07242 -0.558353,-4.31645 1.655199,-8.30062 4.903409,-11.0116 1.838201,-1.666901 4.12487,-3.207654 6.709802,-2.778479 H 5.8439994 C 13.081065,90.12287 19.802159,81.941146 23.111967,72.089423 c 2.166062,-5.932533 1.155248,-12.370544 1.597435,-18.562617 0.06864,-4.009871 0.230442,-8.029339 1.402731,-11.867504 -0.213828,-2.555806 3.199252,-5.606135 2.258478,-7.442904 -3.213846,-2.605302 -6.332045,1.422985 -9.446678,2.133359 -4.666782,2.135132 -9.9639489,3.388315 -15.0932514,2.477794 -5.5179066,-0.984102 -5.9695715,-6.887654 -6.6980091,-11.291223 -0.8967311,-3.870095 -2.71145,-7.503824 -3.1488221,-11.495445 -2.8686231,0.160967 -5.6461344,0.890802 -8.4225584,1.440328 -5.031761,0.905632 -6.232839,-4.680667 -5.495938,-8.4785436 1.069496,-6.0541244 3.685106,-11.8410487 7.310559,-16.7921596 3.9735526,-6.2743298 9.6216632,-11.3156728 15.4108074,-15.8969878 4.8726778,-2.889833 9.9075586,-5.963006 15.6580626,-6.547861 4.516694,-1.181888 9.323266,-0.56084 13.958131,-0.657558 3.759441,0.13685 7.567999,0.801737 11.092982,2.107505 5.366737,1.490352 10.088197,5.504341 12.590494,10.400836 -0.01648,2.67066 0.257188,5.406663 0.06235,8.03715 -1.222552,2.5809733 -2.624,5.0820142 -4.450585,7.2831282 -0.936385,4.1635574 -0.285644,8.5786674 -1.600182,12.6732982 -2.252353,4.2938996 2.750823,6.5523956 6.198161,5.1784676 3.87001,-1.160944 7.943834,-1.856005 11.992756,-2.006915 5.702318,-0.04872 11.4496,-0.297492 17.121441,0.336074 4.015616,0.647562 7.975976,1.513572 11.949166,2.377675 7.875453,2.326376 15.404823,5.767721 22.286343,10.265691 3.97836,2.243418 7.77448,4.828733 11.7472,7.097416 7.67182,4.18738 15.55232,8.148971 23.92545,10.685526 3.76298,1.482833 3.7742,7.903929 0.1367,9.592511 3.58308,3.719618 7.62431,7.187943 9.88608,11.927718 2.31223,4.476536 2.27763,9.597509 1.79489,14.491859 -1.35032,4.920885 -3.78412,9.423567 -6.26714,13.845664 2.14965,2.805822 5.19192,5.700102 4.45195,9.680715 0.25889,3.9275 -1.25657,7.53092 -2.50198,11.14593 -1.5667,4.26136 -2.60255,8.74454 -4.56623,12.84518 -2.02958,3.47835 -5.60282,6.65201 -9.91584,5.98217 -4.07311,-0.0989 -8.11987,-0.50163 -12.08663,-1.3124 -2.06614,-0.29111 -4.10737,-0.97969 -1.90933,1.57571 3.85711,6.33858 8.0839,12.40034 11.82303,18.79686 l 2.21625,3.28638 c 4.8192,-2.26786 6.19217,-2.63609 8.81868,-3.20639 4.42999,-1.0334 13.51142,-1.45401 13.51142,-1.45401 4.01599,-0.0472 7.0206,0.34834 11.17646,0.62634 4.01164,0.40304 7.19021,1.35097 10.67652,2.38631 9.87825,3.11316 18.96652,8.70821 26.13009,16.20019 6.47065,6.31264 12.01349,13.73193 15.15174,22.26752 1.76577,4.13193 3.17394,8.48731 3.82907,12.94043 0.37566,3.72546 1.39134,7.34732 1.12964,11.1372 0.0443,3.96342 0.0551,7.96005 -0.92752,11.81227 -0.18262,3.84652 -1.35869,7.52733 -2.55402,11.13246 -3.37709,10.37537 -9.72876,19.62187 -17.51857,27.19602 -4.73885,4.24146 -9.74484,8.18804 -15.4827,10.99029 -3.53494,1.98816 -7.35539,3.37132 -11.16978,4.65963 -3.82114,0.93271 -7.66668,1.8002 -11.53806,2.48444 -5.78646,0.206 -11.63675,0.45135 -17.39385,-0.21667 -3.83929,-0.96255 -7.80308,-1.50598 -11.53239,-2.86044 -7.16174,-2.20445 -13.77795,-5.87033 -19.63031,-10.53851 -6.02904,-4.72913 -11.44163,-10.33841 -15.67048,-16.74725 -2.56342,-3.97243 -4.84565,-8.18018 -6.42505,-12.65074 -6.67113,3.81072 -13.393736,7.72732 -20.573863,10.58506 -4.808707,2.18731 -9.888268,3.88318 -15.054506,4.97557 -4.216181,0.0328 -8.440391,2.17035 -12.597022,0.6006 -3.573695,-0.19023 -7.497537,-1.01216 -9.731176,-4.11895 -1.6539,-3.74399 -1.190924,-8.60653 1.567055,-11.80375 3.848288,-4.8186 8.470795,-8.94749 12.734145,-13.39182 -3.068331,-2.65897 -5.603587,-6.33225 -5.120407,-10.589 -0.317532,-4.66259 2.236316,-8.69027 3.458133,-13.02997 1.844437,-3.52748 -4.444466,-4.84226 -6.36501,-7.36076 -4.95387,-3.65794 -9.603592,-7.65778 -14.607103,-11.26886 -3.916762,-3.13588 -7.840893,-6.28267 -11.90625,-9.26041 -0.978821,-1.14261 -6.51854,-5.11015 -2.948964,-1.3441 5.943528,7.13293 10.343049,15.58854 12.717044,24.53673 1.265701,4.1665 1.53384,8.50938 1.850441,12.84805 0.03977,4.5602 0.115376,7.91622 -0.188892,11.15908 -0.469323,4.33878 -0.514278,7.72678 -1.764868,11.39921 -2.286339,8.52662 -6.465459,16.60626 -11.972677,23.53948 -6.134179,7.53816 -13.725048,13.90954 -22.2495716,18.58504 -4.4672858,2.13424 -9.0929089,3.98979 -13.9075821,5.10009 -3.8877213,0.94101 -7.8325103,1.99017 -11.8765823,1.98493 -4.723995,0.0109 -9.512274,0.28175 -14.20136,-0.34044 z m 15.246721,-27.28309 c 4.777896,-0.96999 9.4662279,-2.49176 13.7466835,-4.90823 5.53661267,-2.96161 10.2544404,-7.49567 13.7343224,-12.69532 2.1914251,-3.56095 3.9003791,-7.37707 5.0902151,-11.37909 0.80812,-3.82443 1.732323,-7.67648 1.456132,-11.64312 -0.08011,-3.77857 -0.846405,-7.54173 -2.152764,-11.06649 -2.325944,-7.12735 -6.478976,-13.93637 -12.53940275,-18.47715 -1.91061715,2.6769 -2.33852245,6.89985 -3.82546755,10.10681 -1.9674734,6.20684 -4.107651,12.35637 -6.1389392,18.54205 -1.6819035,5.32948 -3.4139005,11.5126 -8.8418325,14.24518 -3.867317,1.67994 -8.580715,1.69479 -12.493403,0.16715 -3.608919,-2.29567 -7.274883,-5.85756 -7.18585,-10.47268 -0.597723,-4.81815 1.207399,-9.30178 2.80122,-13.72126 2.874034,-8.84822 5.869279,-17.65656 8.800425,-26.48551 l 0.23604,-0.72576 c -2.65599,-0.23386 -5.040222,0.14713 -6.01972,0.21789 -6.017927,0.74483 -11.429214,3.91117 -16.491606,7.09299 -7.388178,5.70007 -12.776132,14.03946 -14.740885,23.16127 -1.428983,4.28646 -0.790443,8.96528 -0.781643,13.41778 0.587828,3.89219 1.701332,7.69206 3.212103,11.3382 3.100443,6.75801 7.705905,12.96615 14.176491,16.83422 4.37161,2.70542 9.120931,4.93625 14.163649,5.92339 4.451868,1.29394 9.217864,0.77576 13.794232,0.52768 z m 196.188526,0.003 c 3.98986,-0.97028 8.02015,-1.91714 11.64812,-3.94827 7.59497,-3.45538 13.92883,-9.51285 17.53894,-17.04046 2.20591,-3.80439 3.19058,-8.10704 4.24032,-12.31011 0.40256,-4.40813 0.41026,-8.88997 -0.11737,-13.28748 -1.24601,-4.51746 -2.58374,-9.05532 -5.1266,-13.06426 -3.75724,-6.63745 -9.58863,-12.10377 -16.54175,-15.26083 -3.58029,-1.91386 -7.47096,-3.07051 -11.41724,-3.82327 -4.71795,-0.79361 -9.80153,-0.98271 -14.35061,0.66934 1.52432,3.23557 3.90144,6.06562 5.67503,9.18698 3.72478,5.75712 7.30866,11.61197 11.09699,17.32232 1.71598,3.52032 5.11733,6.48265 4.74512,10.73253 0.46087,3.98098 -0.48797,8.12804 -3.52547,10.90711 -2.46573,3.42344 -6.70997,3.97861 -10.62636,3.79354 -12.20898,0.1744 -24.42509,-0.0961 -36.63078,0.23152 2.30361,5.77028 5.48053,11.29663 10.23119,15.41014 4.72688,4.65439 10.87032,7.62301 17.1651,9.49105 4.14402,1.18203 8.48209,1.51432 12.81034,1.19986 1.06233,-0.0446 2.13032,-0.0767 3.18503,-0.20971 z M 146.70112,203.9253 c -2.11657,-3.55593 -4.40329,-7.00745 -6.69618,-10.44451 -2.25012,3.14489 -4.01289,6.64354 -5.47465,10.21069 3.78401,0.70655 7.81404,0.21456 11.69065,0.27657 z M 73.843562,174.33545 c -0.765056,-4.36279 -1.706838,-8.68043 -2.655867,-13.00079 -1.29549,-3.25654 -0.03099,-8.86808 -3.910285,-10.08664 -8.309588,-0.20217 -16.625178,0.003 -24.937386,0.003 5.726578,4.25365 11.160151,8.87523 16.941056,13.06204 4.630547,4.04737 9.816026,7.42982 14.477302,11.41192 0.25564,-0.42715 0.09326,-0.93271 0.08518,-1.38904 z M 52.635803,122.87399 c 4.085063,-7.13958 10.83374,-12.15197 16.844568,-17.54777 1.69e-4,-3.22471 -0.498586,-7.884473 3.798112,-9.113774 3.135228,-2.63996 6.568612,-4.819306 9.693987,-7.470119 1.022241,-1.120397 6.362769,-3.122404 4.077933,-4.508789 -7.4173,-4.933182 -13.159129,-11.86911 -20.004368,-17.467233 -2.368336,-1.886019 -7.554481,-4.11925 -6.673691,1.105747 -0.163095,5.176628 -2.149634,10.0502 -4.092456,14.779233 -4.257805,9.417852 -10.056752,18.207555 -17.720953,25.209645 -5.848726,5.75068 -11.94167,11.30666 -18.672622,16.00525 h 32.23823 z"
         id="path829"
         inkscape:connector-curvature="0"
         sodipodi:nodetypes="ccccccccccccccccccccccccccccccccccccccccccccccccccccccccccccccccccccccccccccccccccccccccccccccccccccccccccccccccccccccccccccccccccccccccccccccccccccccccccccccccccccccc" />
    </clipPath>
  </defs>
  <sodipodi:namedview
     id="base"
     pagecolor="#ffffff"
     bordercolor="#666666"
     borderopacity="1.0"
     inkscape:pageopacity="0.0"
     inkscape:pageshadow="2"
     inkscape:zoom="0.49497475"
     inkscape:cx="442.29666"
     inkscape:cy="561.11377"
     inkscape:document-units="mm"
     inkscape:current-layer="layer1"
     showgrid="false"
     fit-margin-top="0"
     fit-margin-left="0"
     fit-margin-right="0"
     fit-margin-bottom="0"
     inkscape:snap-page="true"
     inkscape:window-width="1920"
     inkscape:window-height="1015"
     inkscape:window-x="0"
     inkscape:window-y="0"
     inkscape:window-maximized="1" />
  <metadata
     id="metadata5">
    <rdf:RDF>
      <cc:Work
         rdf:about="">
        <dc:format>image/svg+xml</dc:format>
        <dc:type
           rdf:resource="http://purl.org/dc/dcmitype/StillImage" />
        <dc:title />
      </cc:Work>
    </rdf:RDF>
  </metadata>
  <g
     inkscape:label="Layer 1"
     inkscape:groupmode="layer"
     id="layer1"
     transform="translate(91.457892,30.949408)">
    <rect
       style="opacity:1;fill:url(#linearGradient882);fill-opacity:1;stroke:none;stroke-width:2.56500006;stroke-linecap:round;stroke-linejoin:round;stroke-miterlimit:4;stroke-dasharray:none;stroke-dashoffset:0;stroke-opacity:1;paint-order:fill markers stroke"
       id="rect866"
       width="330.26804"
       height="315.71851"
       x="-91.457893"
       y="-30.949394"
       ry="0"
       clip-path="url(#clipPath827)" />
    <text
       xml:space="preserve"
       style="font-style:normal;font-variant:normal;font-weight:normal;font-stretch:normal;font-size:7.76111126px;line-height:1.25;font-family:'Jost*';-inkscape-font-specification:'Jost*';letter-spacing:0px;word-spacing:0px;fill:#000000;fill-opacity:1;stroke:none;stroke-width:0.26458332"
       x="70.826424"
       y="137.17282"
       id="text817"><tspan
         sodipodi:role="line"
         id="tspan815"
         x="70.826424"
         y="144.24098"
         style="stroke-width:0.26458332" /></text>
    <text
       xml:space="preserve"
       style="font-style:normal;font-variant:normal;font-weight:normal;font-stretch:normal;font-size:7.76111126px;line-height:1.25;font-family:sans-serif;-inkscape-font-specification:sans-serif;letter-spacing:0px;word-spacing:0px;fill:#000000;fill-opacity:1;stroke:none;stroke-width:0.26458332"
       x="61.471989"
       y="154.81261"
       id="text821"><tspan
         sodipodi:role="line"
         id="tspan819"
         x="61.471989"
         y="161.67937"
         style="font-style:normal;font-variant:normal;font-weight:normal;font-stretch:normal;font-family:Sawasdee;-inkscape-font-specification:Sawasdee;stroke-width:0.26458332" /></text>
  </g>
</svg>
